INDEX VERSION 1.129+/Users/derreckmansheim/code/newsvalidator/lambda-java-maven/.metadata/.plugins/org.eclipse.jdt.core
4259711477.index
123625232.index
171691422.index
3886640424.index
231214842.index
1781789456.index
657092020.index
1271342938.index
219212267.index
1559679149.index
3751983636.index
2660313047.index
3127907333.index
1942630529.index
957162654.index
1229563885.index
1704727219.index
3020761420.index
2270088228.index
654165894.index
3742651695.index
652034116.index
1929622858.index
1951094273.index
2141826644.index
937276459.index
3025601369.index
618750730.index
2275674948.index
622929354.index
2522688960.index
66824587.index
1493456745.index
3210912141.index
3227537605.index
1689872211.index
440743949.index
2401055690.index
2148325005.index
325061775.index
1890332796.index
3358257065.index
